…
Use R to compute the Kaplan-Meier estimator and 95% CI of the survival
function for the routine bathing group, and also for the body-cleansing
group (only keep the K-M estimates for unique event time points).
Generate a graph of the survival functions in the two treatment groups.
Interpret the graph. (*Hint: What do you observe about the difference of
the survival functions between the two groups?*)

``` r
hw3_data <- read_csv("./data/hw3_data.csv",
                     col_names = c("id", "treatment", "pct_burned", "time_to_infection", "infection"))

hw3_data
```

    ## # A tibble: 154 x 5
    ##       id treatment pct_burned time_to_infection infection
    ##    <dbl>     <dbl>      <dbl>             <dbl>     <dbl>
    ##  1     1         0         15                12         0
    ##  2     2         0         20                 9         0
    ##  3     3         0         15                 7         1
    ##  4     4         0         20                29         0
    ##  5     5         0         70                 4         1
    ##  6     6         0         20                 8         1
    ##  7     7         0          5                11         1
    ##  8     8         0         30                 4         1
    ##  9     9         0         25                 4         1
    ## 10    10         0         20                 7         0
    ## # … with 144 more rows
…
